{
  "data": [
    {
      "id": 5006658,
      "ast": 2,
      "blk": 0,
      "dreb": 1,
      "fg3_pct": 100.0,
      "fg3a": 1,
      "fg3m": 1,
      "fg_pct": 100.0,
      "fga": 1,
      "fgm": 1,
      "ft_pct": 100.0,
      "fta": 2,
      "ftm": 2,
      "game": {
        "id": 264404,
        "date": "2021-03-28T00:00:00.000Z",
        "home_team_id": 8,
        "home_team_score": 126,
        "period": 4,
        "postseason": false,
        "season": 2020,
        "status": "Final",
        "time": "",
        "visitor_team_id": 1,
        "visitor_team_score": 102
      },
      "min": "22:34",
      "oreb": 0,
      "pf": 2,
      "player": {
        "id": 426,
        "first_name": "Tony",
        "height_feet": 6,
        "height_inches": 7,
        "last_name": "Snell",
        "position": "G",
        "team_id": 19,
        "weight_pounds": 213
      },
      "pts": 5,
      "reb": 1,
      "stl": 0,
      "team": {
        "id": 1,
        "abbreviation": "ATL",
        "city": "Atlanta",
        "conference": "East",
        "division": "Southeast",
        "full_name": "Atlanta Hawks",
        "name": "Hawks"
      },
      "turnover": 0
    },
    {
      "id": 5006659,
      "ast": 2,
      "blk": 0,
      "dreb": 5,
      "fg3_pct": 25.0,
      "fg3a": 4,
      "fg3m": 1,
      "fg_pct": 33.3,
      "fga": 9,
      "fgm": 3,
      "ft_pct": 80.0,
      "fta": 5,
      "ftm": 4,
      "game": {
        "id": 264404,
        "date": "2021-03-28T00:00:00.000Z",
        "home_team_id": 8,
        "home_team_score": 126,
        "period": 4,
        "postseason": false,
        "season": 2020,
        "status": "Final",
        "time": "",
        "visitor_team_id": 1,
        "visitor_team_score": 102
      },
      "min": "26:17",
      "oreb": 0,
      "pf": 4,
      "player": {
        "id": 101,
        "first_name": "John",
        "height_feet": 6,
        "height_inches": 10,
        "last_name": "Collins",
        "position": "F-C",
        "team_id": 1,
        "weight_pounds": 235
      },
      "pts": 11,
      "reb": 5,
      "stl": 1,
      "team": {
        "id": 1,
        "abbreviation": "ATL",
        "city": "Atlanta",
        "conference": "East",
        "division": "Southeast",
        "full_name": "Atlanta Hawks",
        "name": "Hawks"
      },
      "turnover": 1
    },
    {
      "id": 5006660,
      "ast": 0,
      "blk": 0,
      "dreb": 7,
      "fg3_pct": 0.0,
      "fg3a": 0,
      "fg3m": 0,
      "fg_pct": 45.5,
      "fga": 11,
      "fgm": 5,
      "ft_pct": 0.0,
      "fta": 0,
      "ftm": 0,
      "game": {
        "id": 264404,
        "date": "2021-03-28T00:00:00.000Z",
        "home_team_id": 8,
        "home_team_score": 126,
        "period": 4,
        "postseason": false,
        "season": 2020,
        "status": "Final",
        "time": "",
        "visitor_team_id": 1,
        "visitor_team_score": 102
      },
      "min": "27:53",
      "oreb": 1,
      "pf": 1,
      "player": {
        "id": 83,
        "first_name": "Clint",
        "height_feet": 6,
        "height_inches": 10,
        "last_name": "Capela",
        "position": "C",
        "team_id": 1,
        "weight_pounds": 240
      },
      "pts": 10,
      "reb": 8,
      "stl": 1,
      "team": {
        "id": 1,
        "abbreviation": "ATL",
        "city": "Atlanta",
        "conference": "East",
        "division": "Southeast",
        "full_name": "Atlanta Hawks",
        "name": "Hawks"
      },
      "turnover": 0
    },
    {
      "id": 5006661,
      "ast": 1,
      "blk": 0,
      "dreb": 0,
      "fg3_pct": 33.3,
      "fg3a": 3,
      "fg3m": 1,
      "fg_pct": 44.4,
      "fga": 9,
      "fgm": 4,
      "ft_pct": 0.0,
      "fta": 0,
      "ftm": 0,
      "game": {
        "id": 264404,
        "date": "2021-03-28T00:00:00.000Z",
        "home_team_id": 8,
        "home_team_score": 126,
        "period": 4,
        "postseason": false,
        "season": 2020,
        "status": "Final",
        "time": "",
        "visitor_team_id": 1,
        "visitor_team_score": 102
      },
      "min": "22:50",
      "oreb": 1,
      "pf": 1,
      "player": {
        "id": 53,
        "first_name": "Bogdan",
        "height_feet": 6,
        "height_inches": 6,
        "last_name": "Bogdanovic",
        "position": "G",
        "team_id": 1,
        "weight_pounds": 205
      },
      "pts": 9,
      "reb": 1,
      "stl": 1,
      "team": {
        "id": 1,
        "abbreviation": "ATL",
        "city": "Atlanta",
        "conference": "East",
        "division": "Southeast",
        "full_name": "Atlanta Hawks",
        "name": "Hawks"
      },
      "turnover": 0
    },
    {
      "id": 5006662,
      "ast": 7,
      "blk": 0,
      "dreb": 5,
      "fg3_pct": 42.9,
      "fg3a": 7,
      "fg3m": 3,
      "fg_pct": 57.1,
      "fga": 14,
      "fgm": 8,
      "ft_pct": 100.0,
      "fta": 2,
      "ftm": 2,
      "game": {
        "id": 264404,
        "date": "2021-03-28T00:00:00.000Z",
        "home_team_id": 8,
        "home_team_score": 126,
        "period": 4,
        "postseason": false,
        "season": 2020,
        "status": "Final",
        "time": "",
        "visitor_team_id": 1,
        "visitor_team_score": 102
      },
      "min": "34:11",
      "oreb": 0,
      "pf": 2,
      "player": {
        "id": 490,
        "first_name": "Trae",
        "height_feet": 6,
        "height_inches": 2,
        "last_name": "Young",
        "position": "G",
        "team_id": 1,
        "weight_pounds": 180
      },
      "pts": 21,
      "reb": 5,
      "stl": 2,
      "team": {
        "id": 1,
        "abbreviation": "ATL",
        "city": "Atlanta",
        "conference": "East",
        "division": "Southeast",
        "full_name": "Atlanta Hawks",
        "name": "Hawks"
      },
      "turnover": 7
    },
    {
      "id": 5006667,
      "ast": 2,
      "blk": 0,
      "dreb": 0,
      "fg3_pct": 40.0,
      "fg3a": 5,
      "fg3m": 2,
      "fg_pct": 42.9,
      "fga": 7,
      "fgm": 3,
      "ft_pct": 0.0,
      "fta": 0,
      "ftm": 0,
      "game": {
        "id": 264404,
        "date": "2021-03-28T00:00:00.000Z",
        "home_team_id": 8,
        "home_team_score": 126,
        "period": 4,
        "postseason": false,
        "season": 2020,
        "status": "Final",
        "time": "",
        "visitor_team_id": 1,
        "visitor_team_score": 102
      },
      "min": "22:40",
      "oreb": 0,
      "pf": 0,
      "player": {
        "id": 221,
        "first_name": "Kevin",
        "height_feet": 6,
        "height_inches": 7,
        "last_name": "Huerter",
        "position": "G",
        "team_id": 1,
        "weight_pounds": 190
      },
      "pts": 8,
      "reb": 0,
      "stl": 0,
      "team": {
        "id": 1,
        "abbreviation": "ATL",
        "city": "Atlanta",
        "conference": "East",
        "division": "Southeast",
        "full_name": "Atlanta Hawks",
        "name": "Hawks"
      },
      "turnover": 2
    },
    {
      "id": 5006664,
      "ast": 2,
      "blk": 1,
      "dreb": 2,
      "fg3_pct": 25.0,
      "fg3a": 4,
      "fg3m": 1,
      "fg_pct": 50.0,
      "fga": 10,
      "fgm": 5,
      "ft_pct": 100.0,
      "fta": 3,
      "ftm": 3,
      "game": {
        "id": 264404,
        "date": "2021-03-28T00:00:00.000Z",
        "home_team_id": 8,
        "home_team_score": 126,
        "period": 4,
        "postseason": false,
        "season": 2020,
        "status": "Final",
        "time": "",
        "visitor_team_id": 1,
        "visitor_team_score": 102
      },
      "min": "23:06",
      "oreb": 0,
      "pf": 3,
      "player": {
        "id": 167,
        "first_name": "Danilo",
        "height_feet": 6,
        "height_inches": 10,
        "last_name": "Gallinari",
        "position": "F",
        "team_id": 1,
        "weight_pounds": 225
      },
      "pts": 14,
      "reb": 2,
      "stl": 0,
      "team": {
        "id": 1,
        "abbreviation": "ATL",
        "city": "Atlanta",
        "conference": "East",
        "division": "Southeast",
        "full_name": "Atlanta Hawks",
        "name": "Hawks"
      },
      "turnover": 0
    },
    {
      "id": 5006677,
      "ast": 5,
      "blk": 0,
      "dreb": 0,
      "fg3_pct": 100.0,
      "fg3a": 2,
      "fg3m": 2,
      "fg_pct": 100.0,
      "fga": 2,
      "fgm": 2,
      "ft_pct": 0.0,
      "fta": 0,
      "ftm": 0,
      "game": {
        "id": 264404,
        "date": "2021-03-28T00:00:00.000Z",
        "home_team_id": 8,
        "home_team_score": 126,
        "period": 4,
        "postseason": false,
        "season": 2020,
        "status": "Final",
        "time": "",
        "visitor_team_id": 1,
        "visitor_team_score": 102
      },
      "min": "27:53",
      "oreb": 1,
      "pf": 2,
      "player": {
        "id": 3547304,
        "first_name": "Facundo",
        "height_feet": null,
        "height_inches": null,
        "last_name": "Campazzo",
        "position": "",
        "team_id": 8,
        "weight_pounds": null
      },
      "pts": 6,
      "reb": 1,
      "stl": 1,
      "team": {
        "id": 8,
        "abbreviation": "DEN",
        "city": "Denver",
        "conference": "West",
        "division": "Northwest",
        "full_name": "Denver Nuggets",
        "name": "Nuggets"
      },
      "turnover": 2
    },
    {
      "id": 5006679,
      "ast": 3,
      "blk": 0,
      "dreb": 2,
      "fg3_pct": 0.0,
      "fg3a": 2,
      "fg3m": 0,
      "fg_pct": 20.0,
      "fga": 5,
      "fgm": 1,
      "ft_pct": 0.0,
      "fta": 0,
      "ftm": 0,
      "game": {
        "id": 264404,
        "date": "2021-03-28T00:00:00.000Z",
        "home_team_id": 8,
        "home_team_score": 126,
        "period": 4,
        "postseason": false,
        "season": 2020,
        "status": "Final",
        "time": "",
        "visitor_team_id": 1,
        "visitor_team_score": 102
      },
      "min": "19:02",
      "oreb": 0,
      "pf": 4,
      "player": {
        "id": 135,
        "first_name": "PJ",
        "height_feet": 6,
        "height_inches": 6,
        "last_name": "Dozier",
        "position": "G-F",
        "team_id": 22,
        "weight_pounds": 205
      },
      "pts": 2,
      "reb": 2,
      "stl": 0,
      "team": {
        "id": 8,
        "abbreviation": "DEN",
        "city": "Denver",
        "conference": "West",
        "division": "Northwest",
        "full_name": "Denver Nuggets",
        "name": "Nuggets"
      },
      "turnover": 0
    },
    {
      "id": 5006680,
      "ast": 1,
      "blk": 0,
      "dreb": 4,
      "fg3_pct": 60.0,
      "fg3a": 5,
      "fg3m": 3,
      "fg_pct": 58.3,
      "fga": 12,
      "fgm": 7,
      "ft_pct": 75.0,
      "fta": 4,
      "ftm": 3,
      "game": {
        "id": 264404,
        "date": "2021-03-28T00:00:00.000Z",
        "home_team_id": 8,
        "home_team_score": 126,
        "period": 4,
        "postseason": false,
        "season": 2020,
        "status": "Final",
        "time": "",
        "visitor_team_id": 1,
        "visitor_team_score": 102
      },
      "min": "13:53",
      "oreb": 3,
      "pf": 0,
      "player": {
        "id": 187,
        "first_name": "JaMychal",
        "height_feet": 6,
        "height_inches": 9,
        "last_name": "Green",
        "position": "F",
        "team_id": 8,
        "weight_pounds": 227
      },
      "pts": 20,
      "reb": 7,
      "stl": 1,
      "team": {
        "id": 8,
        "abbreviation": "DEN",
        "city": "Denver",
        "conference": "West",
        "division": "Northwest",
        "full_name": "Denver Nuggets",
        "name": "Nuggets"
      },
      "turnover": 0
    },
    {
      "id": 5006676,
      "ast": 0,
      "blk": 0,
      "dreb": 1,
      "fg3_pct": 100.0,
      "fg3a": 2,
      "fg3m": 2,
      "fg_pct": 100.0,
      "fga": 3,
      "fgm": 3,
      "ft_pct": 0.0,
      "fta": 0,
      "ftm": 0,
      "game": {
        "id": 264404,
        "date": "2021-03-28T00:00:00.000Z",
        "home_team_id": 8,
        "home_team_score": 126,
        "period": 4,
        "postseason": false,
        "season": 2020,
        "status": "Final",
        "time": "",
        "visitor_team_id": 1,
        "visitor_team_score": 102
      },
      "min": "4:59",
      "oreb": 0,
      "pf": 1,
      "player": {
        "id": 666451,
        "first_name": "Bol",
        "height_feet": null,
        "height_inches": null,
        "last_name": "Bol",
        "position": "C",
        "team_id": 22,
        "weight_pounds": null
      },
      "pts": 8,
      "reb": 1,
      "stl": 0,
      "team": {
        "id": 8,
        "abbreviation": "DEN",
        "city": "Denver",
        "conference": "West",
        "division": "Northwest",
        "full_name": "Denver Nuggets",
        "name": "Nuggets"
      },
      "turnover": 0
    },
    {
      "id": 5006678,
      "ast": 0,
      "blk": 0,
      "dreb": 1,
      "fg3_pct": 100.0,
      "fg3a": 1,
      "fg3m": 1,
      "fg_pct": 100.0,
      "fga": 1,
      "fgm": 1,
      "ft_pct": 0.0,
      "fta": 0,
      "ftm": 0,
      "game": {
        "id": 264404,
        "date": "2021-03-28T00:00:00.000Z",
        "home_team_id": 8,
        "home_team_score": 126,
        "period": 4,
        "postseason": false,
        "season": 2020,
        "status": "Final",
        "time": "",
        "visitor_team_id": 1,
        "visitor_team_score": 102
      },
      "min": "4:59",
      "oreb": 0,
      "pf": 1,
      "player": {
        "id": 666489,
        "first_name": "Vlatko",
        "height_feet": null,
        "height_inches": null,
        "last_name": "Cancar",
        "position": "F",
        "team_id": 8,
        "weight_pounds": null
      },
      "pts": 3,
      "reb": 1,
      "stl": 0,
      "team": {
        "id": 8,
        "abbreviation": "DEN",
        "city": "Denver",
        "conference": "West",
        "division": "Northwest",
        "full_name": "Denver Nuggets",
        "name": "Nuggets"
      },
      "turnover": 0
    },
    {
      "id": 5006683,
      "ast": 3,
      "blk": 0,
      "dreb": 3,
      "fg3_pct": 0.0,
      "fg3a": 2,
      "fg3m": 0,
      "fg_pct": 50.0,
      "fga": 8,
      "fgm": 4,
      "ft_pct": 100.0,
      "fta": 1,
      "ftm": 1,
      "game": {
        "id": 264404,
        "date": "2021-03-28T00:00:00.000Z",
        "home_team_id": 8,
        "home_team_score": 126,
        "period": 4,
        "postseason": false,
        "season": 2020,
        "status": "Final",
        "time": "",
        "visitor_team_id": 1,
        "visitor_team_score": 102
      },
      "min": "20:02",
      "oreb": 2,
      "pf": 2,
      "player": {
        "id": 318,
        "first_name": "Paul",
        "height_feet": 6,
        "height_inches": 8,
        "last_name": "Millsap",
        "position": "F",
        "team_id": 23,
        "weight_pounds": 246
      },
      "pts": 9,
      "reb": 5,
      "stl": 1,
      "team": {
        "id": 8,
        "abbreviation": "DEN",
        "city": "Denver",
        "conference": "West",
        "division": "Northwest",
        "full_name": "Denver Nuggets",
        "name": "Nuggets"
      },
      "turnover": 1
    },
    {
      "id": 5006684,
      "ast": 0,
      "blk": 0,
      "dreb": 2,
      "fg3_pct": 100.0,
      "fg3a": 1,
      "fg3m": 1,
      "fg_pct": 100.0,
      "fga": 1,
      "fgm": 1,
      "ft_pct": 100.0,
      "fta": 2,
      "ftm": 2,
      "game": {
        "id": 264404,
        "date": "2021-03-28T00:00:00.000Z",
        "home_team_id": 8,
        "home_team_score": 126,
        "period": 4,
        "postseason": false,
        "season": 2020,
        "status": "Final",
        "time": "",
        "visitor_team_id": 1,
        "visitor_team_score": 102
      },
      "min": "6:03",
      "oreb": 0,
      "pf": 1,
      "player": {
        "id": 3547268,
        "first_name": "Zeke",
        "height_feet": null,
        "height_inches": null,
        "last_name": "Nnaji",
        "position": "F-C",
        "team_id": 8,
        "weight_pounds": null
      },
      "pts": 5,
      "reb": 2,
      "stl": 0,
      "team": {
        "id": 8,
        "abbreviation": "DEN",
        "city": "Denver",
        "conference": "West",
        "division": "Northwest",
        "full_name": "Denver Nuggets",
        "name": "Nuggets"
      },
      "turnover": 0
    },
    {
      "id": 5006681,
      "ast": 1,
      "blk": 0,
      "dreb": 0,
      "fg3_pct": 0.0,
      "fg3a": 2,
      "fg3m": 0,
      "fg_pct": 0.0,
      "fga": 3,
      "fgm": 0,
      "ft_pct": 0.0,
      "fta": 0,
      "ftm": 0,
      "game": {
        "id": 264404,
        "date": "2021-03-28T00:00:00.000Z",
        "home_team_id": 8,
        "home_team_score": 126,
        "period": 4,
        "postseason": false,
        "season": 2020,
        "status": "Final",
        "time": "",
        "visitor_team_id": 1,
        "visitor_team_score": 102
      },
      "min": "4:25",
      "oreb": 0,
      "pf": 1,
      "player": {
        "id": 3547283,
        "first_name": "Markus",
        "height_feet": null,
        "height_inches": null,
        "last_name": "Howard",
        "position": "G",
        "team_id": 8,
        "weight_pounds": null
      },
      "pts": 0,
      "reb": 0,
      "stl": 0,
      "team": {
        "id": 8,
        "abbreviation": "DEN",
        "city": "Denver",
        "conference": "West",
        "division": "Northwest",
        "full_name": "Denver Nuggets",
        "name": "Nuggets"
      },
      "turnover": 1
    },
    {
      "id": 5006682,
      "ast": 0,
      "blk": 0,
      "dreb": 0,
      "fg3_pct": 0.0,
      "fg3a": 0,
      "fg3m": 0,
      "fg_pct": 0.0,
      "fga": 0,
      "fgm": 0,
      "ft_pct": 0.0,
      "fta": 0,
      "ftm": 0,
      "game": {
        "id": 264404,
        "date": "2021-03-28T00:00:00.000Z",
        "home_team_id": 8,
        "home_team_score": 126,
        "period": 4,
        "postseason": false,
        "season": 2020,
        "status": "Final",
        "time": "",
        "visitor_team_id": 1,
        "visitor_team_score": 102
      },
      "min": "0:00",
      "oreb": 0,
      "pf": 0,
      "player": {
        "id": 306,
        "first_name": "JaVale",
        "height_feet": 7,
        "height_inches": 0,
        "last_name": "McGee",
        "position": "C",
        "team_id": 24,
        "weight_pounds": 270
      },
      "pts": 0,
      "reb": 0,
      "stl": 0,
      "team": {
        "id": 8,
        "abbreviation": "DEN",
        "city": "Denver",
        "conference": "West",
        "division": "Northwest",
        "full_name": "Denver Nuggets",
        "name": "Nuggets"
      },
      "turnover": 0
    },
    {
      "id": 5006666,
      "ast": 0,
      "blk": 0,
      "dreb": 2,
      "fg3_pct": 25.0,
      "fg3a": 4,
      "fg3m": 1,
      "fg_pct": 25.0,
      "fga": 4,
      "fgm": 1,
      "ft_pct": 0.0,
      "fta": 0,
      "ftm": 0,
      "game": {
        "id": 264404,
        "date": "2021-03-28T00:00:00.000Z",
        "home_team_id": 8,
        "home_team_score": 126,
        "period": 4,
        "postseason": false,
        "season": 2020,
        "status": "Final",
        "time": "",
        "visitor_team_id": 1,
        "visitor_team_score": 102
      },
      "min": "16:53",
      "oreb": 0,
      "pf": 1,
      "player": {
        "id": 212,
        "first_name": "Solomon",
        "height_feet": 6,
        "height_inches": 7,
        "last_name": "Hill",
        "position": "F",
        "team_id": 20,
        "weight_pounds": 225
      },
      "pts": 3,
      "reb": 2,
      "stl": 0,
      "team": {
        "id": 1,
        "abbreviation": "ATL",
        "city": "Atlanta",
        "conference": "East",
        "division": "Southeast",
        "full_name": "Atlanta Hawks",
        "name": "Hawks"
      },
      "turnover": 0
    },
    {
      "id": 5006669,
      "ast": 1,
      "blk": 0,
      "dreb": 2,
      "fg3_pct": 33.3,
      "fg3a": 3,
      "fg3m": 1,
      "fg_pct": 40.0,
      "fga": 5,
      "fgm": 2,
      "ft_pct": 0.0,
      "fta": 0,
      "ftm": 0,
      "game": {
        "id": 264404,
        "date": "2021-03-28T00:00:00.000Z",
        "home_team_id": 8,
        "home_team_score": 126,
        "period": 4,
        "postseason": false,
        "season": 2020,
        "status": "Final",
        "time": "",
        "visitor_team_id": 1,
        "visitor_team_score": 102
      },
      "min": "14:01",
      "oreb": 0,
      "pf": 1,
      "player": {
        "id": 3547289,
        "first_name": "Skylar",
        "height_feet": null,
        "height_inches": null,
        "last_name": "Mays",
        "position": "G",
        "team_id": 1,
        "weight_pounds": null
      },
      "pts": 5,
      "reb": 2,
      "stl": 0,
      "team": {
        "id": 1,
        "abbreviation": "ATL",
        "city": "Atlanta",
        "conference": "East",
        "division": "Southeast",
        "full_name": "Atlanta Hawks",
        "name": "Hawks"
      },
      "turnover": 1
    },
    {
      "id": 5006670,
      "ast": 0,
      "blk": 2,
      "dreb": 3,
      "fg3_pct": 0.0,
      "fg3a": 0,
      "fg3m": 0,
      "fg_pct": 0.0,
      "fga": 0,
      "fgm": 0,
      "ft_pct": 50.0,
      "fta": 2,
      "ftm": 1,
      "game": {
        "id": 264404,
        "date": "2021-03-28T00:00:00.000Z",
        "home_team_id": 8,
        "home_team_score": 126,
        "period": 4,
        "postseason": false,
        "season": 2020,
        "status": "Final",
        "time": "",
        "visitor_team_id": 1,
        "visitor_team_score": 102
      },
      "min": "11:55",
      "oreb": 0,
      "pf": 1,
      "player": {
        "id": 3547244,
        "first_name": "Onyeka",
        "height_feet": null,
        "height_inches": null,
        "last_name": "Okongwu",
        "position": "F-C",
        "team_id": 1,
        "weight_pounds": null
      },
      "pts": 1,
      "reb": 3,
      "stl": 1,
      "team": {
        "id": 1,
        "abbreviation": "ATL",
        "city": "Atlanta",
        "conference": "East",
        "division": "Southeast",
        "full_name": "Atlanta Hawks",
        "name": "Hawks"
      },
      "turnover": 0
    },
    {
      "id": 5006665,
      "ast": 1,
      "blk": 0,
      "dreb": 0,
      "fg3_pct": 50.0,
      "fg3a": 2,
      "fg3m": 1,
      "fg_pct": 75.0,
      "fga": 4,
      "fgm": 3,
      "ft_pct": 0.0,
      "fta": 0,
      "ftm": 0,
      "game": {
        "id": 264404,
        "date": "2021-03-28T00:00:00.000Z",
        "home_team_id": 8,
        "home_team_score": 126,
        "period": 4,
        "postseason": false,
        "season": 2020,
        "status": "Final",
        "time": "",
        "visitor_team_id": 1,
        "visitor_team_score": 102
      },
      "min": "6:37",
      "oreb": 0,
      "pf": 0,
      "player": {
        "id": 3091,
        "first_name": "Brandon",
        "height_feet": 6,
        "height_inches": 2,
        "last_name": "Goodwin",
        "position": "",
        "team_id": 6,
        "weight_pounds": 180
      },
      "pts": 7,
      "reb": 0,
      "stl": 1,
      "team": {
        "id": 1,
        "abbreviation": "ATL",
        "city": "Atlanta",
        "conference": "East",
        "division": "Southeast",
        "full_name": "Atlanta Hawks",
        "name": "Hawks"
      },
      "turnover": 0
    },
    {
      "id": 5006668,
      "ast": 0,
      "blk": 0,
      "dreb": 1,
      "fg3_pct": 0.0,
      "fg3a": 1,
      "fg3m": 0,
      "fg_pct": 0.0,
      "fga": 1,
      "fgm": 0,
      "ft_pct": 83.3,
      "fta": 6,
      "ftm": 5,
      "game": {
        "id": 264404,
        "date": "2021-03-28T00:00:00.000Z",
        "home_team_id": 8,
        "home_team_score": 126,
        "period": 4,
        "postseason": false,
        "season": 2020,
        "status": "Final",
        "time": "",
        "visitor_team_id": 1,
        "visitor_team_score": 102
      },
      "min": "6:37",
      "oreb": 0,
      "pf": 0,
      "player": {
        "id": 3547295,
        "first_name": "Nathan",
        "height_feet": null,
        "height_inches": null,
        "last_name": "Knight",
        "position": "F-C",
        "team_id": 18,
        "weight_pounds": null
      },
      "pts": 5,
      "reb": 1,
      "stl": 0,
      "team": {
        "id": 1,
        "abbreviation": "ATL",
        "city": "Atlanta",
        "conference": "East",
        "division": "Southeast",
        "full_name": "Atlanta Hawks",
        "name": "Hawks"
      },
      "turnover": 0
    },
    {
      "id": 5006663,
      "ast": 0,
      "blk": 0,
      "dreb": 1,
      "fg3_pct": 0.0,
      "fg3a": 0,
      "fg3m": 0,
      "fg_pct": 100.0,
      "fga": 1,
      "fgm": 1,
      "ft_pct": 100.0,
      "fta": 1,
      "ftm": 1,
      "game": {
        "id": 264404,
        "date": "2021-03-28T00:00:00.000Z",
        "home_team_id": 8,
        "home_team_score": 126,
        "period": 4,
        "postseason": false,
        "season": 2020,
        "status": "Final",
        "time": "",
        "visitor_team_id": 1,
        "visitor_team_score": 102
      },
      "min": "4:25",
      "oreb": 0,
      "pf": 0,
      "player": {
        "id": 666564,
        "first_name": "Bruno",
        "height_feet": null,
        "height_inches": null,
        "last_name": "Fernando",
        "position": "F",
        "team_id": 11,
        "weight_pounds": null
      },
      "pts": 3,
      "reb": 1,
      "stl": 0,
      "team": {
        "id": 1,
        "abbreviation": "ATL",
        "city": "Atlanta",
        "conference": "East",
        "division": "Southeast",
        "full_name": "Atlanta Hawks",
        "name": "Hawks"
      },
      "turnover": 0
    },
    {
      "id": 5006671,
      "ast": 3,
      "blk": 0,
      "dreb": 5,
      "fg3_pct": 40.0,
      "fg3a": 5,
      "fg3m": 2,
      "fg_pct": 50.0,
      "fga": 12,
      "fgm": 6,
      "ft_pct": 100.0,
      "fta": 1,
      "ftm": 1,
      "game": {
        "id": 264404,
        "date": "2021-03-28T00:00:00.000Z",
        "home_team_id": 8,
        "home_team_score": 126,
        "period": 4,
        "postseason": false,
        "season": 2020,
        "status": "Final",
        "time": "",
        "visitor_team_id": 1,
        "visitor_team_score": 102
      },
      "min": "26:41",
      "oreb": 5,
      "pf": 0,
      "player": {
        "id": 375,
        "first_name": "Michael",
        "height_feet": 6,
        "height_inches": 10,
        "last_name": "Porter Jr.",
        "position": "F",
        "team_id": 8,
        "weight_pounds": 210
      },
      "pts": 15,
      "reb": 10,
      "stl": 0,
      "team": {
        "id": 8,
        "abbreviation": "DEN",
        "city": "Denver",
        "conference": "West",
        "division": "Northwest",
        "full_name": "Denver Nuggets",
        "name": "Nuggets"
      },
      "turnover": 0
    },
    {
      "id": 5006672,
      "ast": 1,
      "blk": 0,
      "dreb": 2,
      "fg3_pct": 25.0,
      "fg3a": 4,
      "fg3m": 1,
      "fg_pct": 66.7,
      "fga": 9,
      "fgm": 6,
      "ft_pct": 0.0,
      "fta": 0,
      "ftm": 0,
      "game": {
        "id": 264404,
        "date": "2021-03-28T00:00:00.000Z",
        "home_team_id": 8,
        "home_team_score": 126,
        "period": 4,
        "postseason": false,
        "season": 2020,
        "status": "Final",
        "time": "",
        "visitor_team_id": 1,
        "visitor_team_score": 102
      },
      "min": "20:41",
      "oreb": 0,
      "pf": 1,
      "player": {
        "id": 177,
        "first_name": "Aaron",
        "height_feet": 6,
        "height_inches": 9,
        "last_name": "Gordon",
        "position": "F",
        "team_id": 8,
        "weight_pounds": 220
      },
      "pts": 13,
      "reb": 2,
      "stl": 1,
      "team": {
        "id": 8,
        "abbreviation": "DEN",
        "city": "Denver",
        "conference": "West",
        "division": "Northwest",
        "full_name": "Denver Nuggets",
        "name": "Nuggets"
      },
      "turnover": 0
    },
    {
      "id": 5006673,
      "ast": 8,
      "blk": 2,
      "dreb": 7,
      "fg3_pct": 50.0,
      "fg3a": 2,
      "fg3m": 1,
      "fg_pct": 58.3,
      "fga": 12,
      "fgm": 7,
      "ft_pct": 50.0,
      "fta": 2,
      "ftm": 1,
      "game": {
        "id": 264404,
        "date": "2021-03-28T00:00:00.000Z",
        "home_team_id": 8,
        "home_team_score": 126,
        "period": 4,
        "postseason": false,
        "season": 2020,
        "status": "Final",
        "time": "",
        "visitor_team_id": 1,
        "visitor_team_score": 102
      },
      "min": "28:12",
      "oreb": 3,
      "pf": 0,
      "player": {
        "id": 246,
        "first_name": "Nikola",
        "height_feet": 7,
        "height_inches": 0,
        "last_name": "Jokic",
        "position": "C",
        "team_id": 8,
        "weight_pounds": 250
      },
      "pts": 16,
      "reb": 10,
      "stl": 1,
      "team": {
        "id": 8,
        "abbreviation": "DEN",
        "city": "Denver",
        "conference": "West",
        "division": "Northwest",
        "full_name": "Denver Nuggets",
        "name": "Nuggets"
      },
      "turnover": 0
    }
  ],
  "meta": {
    "total_pages": 2,
    "current_page": 1,
    "next_page": 2,
    "per_page": 25,
    "total_count": 27
  }
}